Understanding Tucker Carlson’s Audience
…
Figure 9: Audience segments visualized via PCA (first two principal components)

Table 9: Cluster mean profiles on key attitude dimensions

# A tibble: 96 × 7
   Item        `Cluster 1` `Cluster 2` `Cluster 3` n     `Cluster 4` `Cluster 5`
   <chr>       <chr>       <chr>       <chr>       <chr> <chr>       <chr>      
 1 **N**       8           4           22          <NA>  <NA>        <NA>       
 2 Vaccines d… 3.9         <NA>        <NA>        8     <NA>        <NA>       
 3 Moon landi… 1.2         <NA>        <NA>        8     <NA>        <NA>       
 4 Epstein/Mo… 1.9         <NA>        <NA>        8     <NA>        <NA>       
 5 Alien cont… 2.1         <NA>        <NA>        8     <NA>        <NA>       
 6 2020 elect… 3.9         <NA>        <NA>        8     <NA>        <NA>       
 7 Russia pro… 21.6        <NA>        <NA>        8     <NA>        <NA>       
 8 Israel/AIP… 13.5        <NA>        <NA>        8     <NA>        <NA>       
 9 Cut all fo… 68.6        <NA>        <NA>        8     <NA>        <NA>       
10 Israeli pe… 96.8        <NA>        <NA>        8     <NA>        <NA>       
# ℹ 86 more rows
…
